P1/alu.vcd
$date
	Mon Oct 21 14:37:40 2024
$end
$version
	Icarus Verilog
$end
$timescale
	10ps
$end
$scope module alu_tb $end
$var wire 1 ! t_z $end
$var wire 1 " t_s $end
$var wire 1 # t_c $end
$var wire 4 $ t_R [3:0] $end
$var reg 1 % error $end
$var reg 1 & error_R $end
$var reg 1 ' error_c $end
$var reg 1 ( error_s $end
$var reg 1 ) error_z $end
$var reg 4 * t_A [3:0] $end
$var reg 4 + t_B [3:0] $end
$var reg 3 , t_Op [2:0] $end
$var reg 1 - t_cin $end
$var integer 32 . errores [31:0] $end
$scope module mat $end
$var wire 4 / A [3:0] $end
$var wire 4 0 B [3:0] $end
$var wire 3 1 Op [2:0] $end
$var wire 1 - c_in $end
$var wire 1 # carry $end
$var wire 1 ! zero $end
$var wire 1 " sign $end
$var wire 4 2 out_ul [3:0] $end
$var wire 4 3 out_sum [3:0] $end
$var wire 1 4 c_out $end
$var wire 4 5 R [3:0] $end
$var wire 4 6 BMod [3:0] $end
$var wire 4 7 AMod [3:0] $end
$scope module m1 $end
$var wire 1 8 s $end
$var wire 4 9 Out [3:0] $end
$var wire 4 : B [3:0] $end
$var wire 4 ; A [3:0] $end
$upscope $end
$scope module pp $end
$var wire 4 < A [3:0] $end
$var wire 4 = B [3:0] $end
$var wire 3 > Op [2:0] $end
$var wire 1 ? cpl $end
$var wire 1 @ op1_A $end
$var wire 1 A op2_B $end
$var wire 4 B m3_to_c1 [3:0] $end
$var wire 4 C m1_to_m2 [3:0] $end
$var wire 1 D add1 $end
$var wire 4 E BMod [3:0] $end
$var wire 4 F AMod [3:0] $end
$scope module c1 $end
$var wire 1 ? cpl $end
$var wire 4 G Out [3:0] $end
$var wire 4 H Inp [3:0] $end
$upscope $end
$scope module m1 $end
$var wire 4 I A [3:0] $end
$var wire 4 J B [3:0] $end
$var wire 1 D s $end
$var wire 4 K Out [3:0] $end
$upscope $end
$scope module m2 $end
$var wire 4 L A [3:0] $end
$var wire 4 M B [3:0] $end
$var wire 1 @ s $end
$var wire 4 N Out [3:0] $end
$upscope $end
$scope module m3 $end
$var wire 4 O A [3:0] $end
$var wire 4 P B [3:0] $end
$var wire 1 A s $end
$var wire 4 Q Out [3:0] $end
$upscope $end
$upscope $end
$scope module sum $end
$var wire 4 R A [3:0] $end
$var wire 4 S B [3:0] $end
$var wire 1 - c_in $end
$var wire 1 4 c_out $end
$var wire 1 T c3 $end
$var wire 1 U c2 $end
$var wire 1 V c1 $end
$var wire 4 W S [3:0] $end
$scope module fa0 $end
$var wire 1 X a $end
$var wire 1 Y b $end
$var wire 1 - c_in $end
$var wire 1 V c_out $end
$var wire 1 Z sum $end
$upscope $end
$scope module fa1 $end
$var wire 1 [ a $end
$var wire 1 \ b $end
$var wire 1 V c_in $end
$var wire 1 U c_out $end
$var wire 1 ] sum $end
$upscope $end
$scope module fa2 $end
$var wire 1 ^ a $end
$var wire 1 _ b $end
$var wire 1 U c_in $end
$var wire 1 T c_out $end
$var wire 1 ` sum $end
$upscope $end
$scope module fa3 $end
$var wire 1 a a $end
$var wire 1 b b $end
$var wire 1 T c_in $end
$var wire 1 4 c_out $end
$var wire 1 c sum $end
$upscope $end
$upscope $end
$scope module ul $end
$var wire 4 d A [3:0] $end
$var wire 4 e B [3:0] $end
$var wire 4 f Out [3:0] $end
$var wire 2 g S [1:0] $end
$var wire 4 h cl_out [3:0] $end
$scope module cl0 $end
$var wire 2 i S [1:0] $end
$var wire 1 j a $end
$var wire 1 k b $end
$var wire 1 l out $end
$upscope $end
$scope module cl1 $end
$var wire 2 m S [1:0] $end
$var wire 1 n a $end
$var wire 1 o b $end
$var wire 1 p out $end
$upscope $end
$scope module cl2 $end
$var wire 2 q S [1:0] $end
$var wire 1 r a $end
$var wire 1 s b $end
$var wire 1 t out $end
$upscope $end
$scope module cl3 $end
$var wire 2 u S [1:0] $end
$var wire 1 v a $end
$var wire 1 w b $end
$var wire 1 x out $end
$upscope $end
$upscope $end
$upscope $end
$scope task check $end
$var reg 5 y expected_R [4:0] $end
$var reg 1 z expected_c $end
$var reg 1 { expected_s $end
$var reg 1 | expected_z $end
$upscope $end
$upscope $end
$scope module ha1 $end
$var wire 1 } a $end
$var wire 1 ~ b $end
$var wire 1 !" carry $end
$var wire 1 "" sum $end
$upscope $end
$scope module mux4_1 $end
$var wire 2 #" S [1:0] $end
$var wire 1 $" a $end
$var wire 1 %" b $end
$var wire 1 &" c $end
$var wire 1 '" d $end
$var reg 1 (" out $end
$upscope $end
$enddefinitions $end
#0
$dumpvars
x("
z'"
z&"
z%"
z$"
bz #"
x""
x!"
z~
z}
x|
x{
xz
bx y
0x
0w
0v
b0 u
0t
0s
0r
b0 q
0p
0o
0n
b0 m
0l
0k
0j
b0 i
b0 h
b0 g
b0 f
b0 e
b0 d
0c
0b
0a
0`
0_
0^
0]
0\
0[
0Z
0Y
0X
b0 W
0V
0U
0T
b0 S
b0 R
b0 Q
b0 P
b0 O
b0 N
b0 M
b0 L
b0 K
b1 J
b0 I
b0 H
b0 G
b0 F
b0 E
0D
b0 C
b0 B
0A
0@
0?
b0 >
b0 =
b0 <
b0 ;
b0 :
b0 9
08
b0 7
b0 6
b0 5
04
b0 3
b0 2
b0 1
b0 0
b0 /
b0 .
0-
b0 ,
b0 +
b0 *
x)
x(
x'
x&
x%
b0 $
0#
0"
1!
$end
#1
0%
0)
0&
1|
0'
0(
0{
0z
b0 y
#1000
b1 +
b1 0
b1 =
b1 P
#2000
b10 +
b10 0
b10 =
b10 P
#3000
b11 +
b11 0
b11 =
b11 P
#4000
b100 +
b100 0
b100 =
b100 P
#5000
b101 +
b101 0
b101 =
b101 P
#6000
b110 +
b110 0
b110 =
b110 P
#7000
b111 +
b111 0
b111 =
b111 P
#8000
b1000 +
b1000 0
b1000 =
b1000 P
#9000
b1001 +
b1001 0
b1001 =
b1001 P
#10000
b1010 +
b1010 0
b1010 =
b1010 P
#11000
b1011 +
b1011 0
b1011 =
b1011 P
#12000
b1100 +
b1100 0
b1100 =
b1100 P
#13000
b1101 +
b1101 0
b1101 =
b1101 P
#14000
b1110 +
b1110 0
b1110 =
b1110 P
#15000
b1111 +
b1111 0
b1111 =
b1111 P
#16000
0!
b1 $
b1 5
b1 9
b1 3
b1 ;
b1 W
1Z
1Y
1k
b1 6
b1 E
b1 G
b1 S
b1 e
b1 B
b1 H
b1 Q
b1 *
b1 /
b1 <
b1 M
b1 O
b0 +
b0 0
b0 =
b0 P
#16001
0|
b1 y
#17000
b1 +
b1 0
b1 =
b1 P
#18000
b10 +
b10 0
b10 =
b10 P
#19000
b11 +
b11 0
b11 =
b11 P
#20000
b100 +
b100 0
b100 =
b100 P
#21000
b101 +
b101 0
b101 =
b101 P
#22000
b110 +
b110 0
b110 =
b110 P
#23000
b111 +
b111 0
b111 =
b111 P
#24000
b1000 +
b1000 0
b1000 =
b1000 P
#25000
b1001 +
b1001 0
b1001 =
b1001 P
#26000
b1010 +
b1010 0
b1010 =
b1010 P
#27000
b1011 +
b1011 0
b1011 =
b1011 P
#28000
b1100 +
b1100 0
b1100 =
b1100 P
#29000
b1101 +
b1101 0
b1101 =
b1101 P
#30000
b1110 +
b1110 0
b1110 =
b1110 P
#31000
b1111 +
b1111 0
b1111 =
b1111 P
#32000
b10 $
b10 5
b10 9
0Z
b10 3
b10 ;
b10 W
1]
0Y
1\
0k
1o
b10 6
b10 E
b10 G
b10 S
b10 e
b10 B
b10 H
b10 Q
b10 *
b10 /
b10 <
b10 M
b10 O
b0 +
b0 0
b0 =
b0 P
#32001
b10 y
#33000
b1 +
b1 0
b1 =
b1 P
#34000
b10 +
b10 0
b10 =
b10 P
#35000
b11 +
b11 0
b11 =
b11 P
#36000
b100 +
b100 0
b100 =
b100 P
#37000
b101 +
b101 0
b101 =
b101 P
#38000
b110 +
b110 0
b110 =
b110 P
#39000
b111 +
b111 0
b111 =
b111 P
#40000
b1000 +
b1000 0
b1000 =
b1000 P
#41000
b1001 +
b1001 0
b1001 =
b1001 P
#42000
b1010 +
b1010 0
b1010 =
b1010 P
#43000
b1011 +
b1011 0
b1011 =
b1011 P
#44000
b1100 +
b1100 0
b1100 =
b1100 P
#45000
b1101 +
b1101 0
b1101 =
b1101 P
#46000
b1110 +
b1110 0
b1110 =
b1110 P
#47000
b1111 +
b1111 0
b1111 =
b1111 P
#48000
b11 $
b11 5
b11 9
b11 3
b11 ;
b11 W
1Z
1Y
1k
b11 6
b11 E
b11 G
b11 S
b11 e
b11 B
b11 H
b11 Q
b11 *
b11 /
b11 <
b11 M
b11 O
b0 +
b0 0
b0 =
b0 P
#48001
b11 y
#49000
b1 +
b1 0
b1 =
b1 P
#50000
b10 +
b10 0
b10 =
b10 P
#51000
b11 +
b11 0
b11 =
b11 P
#52000
b100 +
b100 0
b100 =
b100 P
#53000
b101 +
b101 0
b101 =
b101 P
#54000
b110 +
b110 0
b110 =
b110 P
#55000
b111 +
b111 0
b111 =
b111 P
#56000
b1000 +
b1000 0
b1000 =
b1000 P
#57000
b1001 +
b1001 0
b1001 =
b1001 P
#58000
b1010 +
b1010 0
b1010 =
b1010 P
#59000
b1011 +
b1011 0
b1011 =
b1011 P
#60000
b1100 +
b1100 0
b1100 =
b1100 P
#61000
b1101 +
b1101 0
b1101 =
b1101 P
#62000
b1110 +
b1110 0
b1110 =
b1110 P
#63000
b1111 +
b1111 0
b1111 =
b1111 P
#64000
b100 $
b100 5
b100 9
0Z
0]
b100 3
b100 ;
b100 W
1`
0Y
0\
1_
0k
0o
1s
b100 6
b100 E
b100 G
b100 S
b100 e
b100 B
b100 H
b100 Q
b100 *
b100 /
b100 <
b100 M
b100 O
b0 +
b0 0
b0 =
b0 P
#64001
b100 y
#65000
b1 +
b1 0
b1 =
b1 P
#66000
b10 +
b10 0
b10 =
b10 P
#67000
b11 +
b11 0
b11 =
b11 P
#68000
b100 +
b100 0
b100 =
b100 P
#69000
b101 +
b101 0
b101 =
b101 P
#70000
b110 +
b110 0
b110 =
b110 P
#71000
b111 +
b111 0
b111 =
b111 P
#72000
b1000 +
b1000 0
b1000 =
b1000 P
#73000
b1001 +
b1001 0
b1001 =
b1001 P
#74000
b1010 +
b1010 0
b1010 =
b1010 P
#75000
b1011 +
b1011 0
b1011 =
b1011 P
#76000
b1100 +
b1100 0
b1100 =
b1100 P
#77000
b1101 +
b1101 0
b1101 =
b1101 P
#78000
b1110 +
b1110 0
b1110 =
b1110 P
#79000
b1111 +
b1111 0
b1111 =
b1111 P
#80000
b101 $
b101 5
b101 9
b101 3
b101 ;
b101 W
1Z
1Y
1k
b101 6
b101 E
b101 G
b101 S
b101 e
b101 B
b101 H
b101 Q
b101 *
b101 /
b101 <
b101 M
b101 O
b0 +
b0 0
b0 =
b0 P
#80001
b101 y
#81000
b1 +
b1 0
b1 =
b1 P
#82000
b10 +
b10 0
b10 =
b10 P
#83000
b11 +
b11 0
b11 =
b11 P
#84000
b100 +
b100 0
b100 =
b100 P
#85000
b101 +
b101 0
b101 =
b101 P
#86000
b110 +
b110 0
b110 =
b110 P
#87000
b111 +
b111 0
b111 =
b111 P
#88000
b1000 +
b1000 0
b1000 =
b1000 P
#89000
b1001 +
b1001 0
b1001 =
b1001 P
#90000
b1010 +
b1010 0
b1010 =
b1010 P
#91000
b1011 +
b1011 0
b1011 =
b1011 P
#92000
b1100 +
b1100 0
b1100 =
b1100 P
#93000
b1101 +
b1101 0
b1101 =
b1101 P
#94000
b1110 +
b1110 0
b1110 =
b1110 P
#95000
b1111 +
b1111 0
b1111 =
b1111 P
#96000
b110 $
b110 5
b110 9
0Z
b110 3
b110 ;
b110 W
1]
0Y
1\
0k
1o
b110 6
b110 E
b110 G
b110 S
b110 e
b110 B
b110 H
b110 Q
b110 *
b110 /
b110 <
b110 M
b110 O
b0 +
b0 0
b0 =
b0 P
#96001
b110 y
#97000
b1 +
b1 0
b1 =
b1 P
#98000
b10 +
b10 0
b10 =
b10 P
#99000
b11 +
b11 0
b11 =
b11 P
#100000
b100 +
b100 0
b100 =
b100 P
#101000
b101 +
b101 0
b101 =
b101 P
#102000
b110 +
b110 0
b110 =
b110 P
#103000
b111 +
b111 0
b111 =
b111 P
#104000
b1000 +
b1000 0
b1000 =
b1000 P
#105000
b1001 +
b1001 0
b1001 =
b1001 P
#106000
b1010 +
b1010 0
b1010 =
b1010 P
#107000
b1011 +
b1011 0
b1011 =
b1011 P
#108000
b1100 +
b1100 0
b1100 =
b1100 P
#109000
b1101 +
b1101 0
b1101 =
b1101 P
#110000
b1110 +
b1110 0
b1110 =
b1110 P
#111000
b1111 +
b1111 0
b1111 =
b1111 P
#112000
b111 $
b111 5
b111 9
b111 3
b111 ;
b111 W
1Z
1Y
1k
b111 6
b111 E
b111 G
b111 S
b111 e
b111 B
b111 H
b111 Q
b111 *
b111 /
b111 <
b111 M
b111 O
b0 +
b0 0
b0 =
b0 P
#112001
b111 y
#113000
b1 +
b1 0
b1 =
b1 P
#114000
b10 +
b10 0
b10 =
b10 P
#115000
b11 +
b11 0
b11 =
b11 P
#116000
b100 +
b100 0
b100 =
b100 P
#117000
b101 +
b101 0
b101 =
b101 P
#118000
b110 +
b110 0
b110 =
b110 P
#119000
b111 +
b111 0
b111 =
b111 P
#120000
b1000 +
b1000 0
b1000 =
b1000 P
#121000
b1001 +
b1001 0
b1001 =
b1001 P
#122000
b1010 +
b1010 0
b1010 =
b1010 P
#123000
b1011 +
b1011 0
b1011 =
b1011 P
#124000
b1100 +
b1100 0
b1100 =
b1100 P
#125000
b1101 +
b1101 0
b1101 =
b1101 P
#126000
b1110 +
b1110 0
b1110 =
b1110 P
#127000
b1111 +
b1111 0
b1111 =
b1111 P
#128000
1"
b1000 $
b1000 5
b1000 9
0Z
0]
0`
b1000 3
b1000 ;
b1000 W
1c
0Y
0\
0_
1b
0k
0o
0s
1w
b1000 6
b1000 E
b1000 G
b1000 S
b1000 e
b1000 B
b1000 H
b1000 Q
b1000 *
b1000 /
b1000 <
b1000 M
b1000 O
b0 +
b0 0
b0 =
b0 P
#128001
1{
b1000 y
#129000
b1 +
b1 0
b1 =
b1 P
#130000
b10 +
b10 0
b10 =
b10 P
#131000
b11 +
b11 0
b11 =
b11 P
#132000
b100 +
b100 0
b100 =
b100 P
#133000
b101 +
b101 0
b101 =
b101 P
#134000
b110 +
b110 0
b110 =
b110 P
#135000
b111 +
b111 0
b111 =
b111 P
#136000
b1000 +
b1000 0
b1000 =
b1000 P
#137000
b1001 +
b1001 0
b1001 =
b1001 P
#138000
b1010 +
b1010 0
b1010 =
b1010 P
#139000
b1011 +
b1011 0
b1011 =
b1011 P
#140000
b1100 +
b1100 0
b1100 =
b1100 P
#141000
b1101 +
b1101 0
b1101 =
b1101 P
#142000
b1110 +
b1110 0
b1110 =
b1110 P
#143000
b1111 +
b1111 0
b1111 =
b1111 P
#144000
b1001 $
b1001 5
b1001 9
b1001 3
b1001 ;
b1001 W
1Z
1Y
1k
b1001 6
b1001 E
b1001 G
b1001 S
b1001 e
b1001 B
b1001 H
b1001 Q
b1001 *
b1001 /
b1001 <
b1001 M
b1001 O
b0 +
b0 0
b0 =
b0 P
#144001
b1001 y
#145000
b1 +
b1 0
b1 =
b1 P
#146000
b10 +
b10 0
b10 =
b10 P
#147000
b11 +
b11 0
b11 =
b11 P
#148000
b100 +
b100 0
b100 =
b100 P
#149000
b101 +
b101 0
b101 =
b101 P
#150000
b110 +
b110 0
b110 =
b110 P
#151000
b111 +
b111 0
b111 =
b111 P
#152000
b1000 +
b1000 0
b1000 =
b1000 P
#153000
b1001 +
b1001 0
b1001 =
b1001 P
#154000
b1010 +
b1010 0
b1010 =
b1010 P
#155000
b1011 +
b1011 0
b1011 =
b1011 P
#156000
b1100 +
b1100 0
b1100 =
b1100 P
#157000
b1101 +
b1101 0
b1101 =
b1101 P
#158000
b1110 +
b1110 0
b1110 =
b1110 P
#159000
b1111 +
b1111 0
b1111 =
b1111 P
#160000
b1010 $
b1010 5
b1010 9
0Z
b1010 3
b1010 ;
b1010 W
1]
0Y
1\
0k
1o
b1010 6
b1010 E
b1010 G
b1010 S
b1010 e
b1010 B
b1010 H
b1010 Q
b1010 *
b1010 /
b1010 <
b1010 M
b1010 O
b0 +
b0 0
b0 =
b0 P
#160001
b1010 y
#161000
b1 +
b1 0
b1 =
b1 P
#162000
b10 +
b10 0
b10 =
b10 P
#163000
b11 +
b11 0
b11 =
b11 P
#164000
b100 +
b100 0
b100 =
b100 P
#165000
b101 +
b101 0
b101 =
b101 P
#166000
b110 +
b110 0
b110 =
b110 P
#167000
b111 +
b111 0
b111 =
b111 P
#168000
b1000 +
b1000 0
b1000 =
b1000 P
#169000
b1001 +
b1001 0
b1001 =
b1001 P
#170000
b1010 +
b1010 0
b1010 =
b1010 P
#171000
b1011 +
b1011 0
b1011 =
b1011 P
#172000
b1100 +
b1100 0
b1100 =
b1100 P
#173000
b1101 +
b1101 0
b1101 =
b1101 P
#174000
b1110 +
b1110 0
b1110 =
b1110 P
#175000
b1111 +
b1111 0
b1111 =
b1111 P
#176000
b1011 $
b1011 5
b1011 9
b1011 3
b1011 ;
b1011 W
1Z
1Y
1k
b1011 6
b1011 E
b1011 G
b1011 S
b1011 e
b1011 B
b1011 H
b1011 Q
b1011 *
b1011 /
b1011 <
b1011 M
b1011 O
b0 +
b0 0
b0 =
b0 P
#176001
b1011 y
#177000
b1 +
b1 0
b1 =
b1 P
#178000
b10 +
b10 0
b10 =
b10 P
#179000
b11 +
b11 0
b11 =
b11 P
#180000
b100 +
b100 0
b100 =
b100 P
#181000
b101 +
b101 0
b101 =
b101 P
#182000
b110 +
b110 0
b110 =
b110 P
#183000
b111 +
b111 0
b111 =
b111 P
#184000
b1000 +
b1000 0
b1000 =
b1000 P
#185000
b1001 +
b1001 0
b1001 =
b1001 P
#186000
b1010 +
b1010 0
b1010 =
b1010 P
#187000
b1011 +
b1011 0
b1011 =
b1011 P
#188000
b1100 +
b1100 0
b1100 =
b1100 P
#189000
b1101 +
b1101 0
b1101 =
b1101 P
#190000
b1110 +
b1110 0
b1110 =
b1110 P
#191000
b1111 +
b1111 0
b1111 =
b1111 P
#192000
b1100 $
b1100 5
b1100 9
0Z
0]
b1100 3
b1100 ;
b1100 W
1`
0Y
0\
1_
0k
0o
1s
b1100 6
b1100 E
b1100 G
b1100 S
b1100 e
b1100 B
b1100 H
b1100 Q
b1100 *
b1100 /
b1100 <
b1100 M
b1100 O
b0 +
b0 0
b0 =
b0 P
#192001
b1100 y
#193000
b1 +
b1 0
b1 =
b1 P
#194000
b10 +
b10 0
b10 =
b10 P
#195000
b11 +
b11 0
b11 =
b11 P
#196000
b100 +
b100 0
b100 =
b100 P
#197000
b101 +
b101 0
b101 =
b101 P
#198000
b110 +
b110 0
b110 =
b110 P
#199000
b111 +
b111 0
b111 =
b111 P
#200000
b1000 +
b1000 0
b1000 =
b1000 P
#201000
b1001 +
b1001 0
b1001 =
b1001 P
#202000
b1010 +
b1010 0
b1010 =
b1010 P
#203000
b1011 +
b1011 0
b1011 =
b1011 P
#204000
b1100 +
b1100 0
b1100 =
b1100 P
#205000
b1101 +
b1101 0
b1101 =
b1101 P
#206000
b1110 +
b1110 0
b1110 =
b1110 P
#207000
b1111 +
b1111 0
b1111 =
b1111 P
#208000
b1101 $
b1101 5
b1101 9
b1101 3
b1101 ;
b1101 W
1Z
1Y
1k
b1101 6
b1101 E
b1101 G
b1101 S
b1101 e
b1101 B
b1101 H
b1101 Q
b1101 *
b1101 /
b1101 <
b1101 M
b1101 O
b0 +
b0 0
b0 =
b0 P
#208001
b1101 y
#209000
b1 +
b1 0
b1 =
b1 P
#210000
b10 +
b10 0
b10 =
b10 P
#211000
b11 +
b11 0
b11 =
b11 P
#212000
b100 +
b100 0
b100 =
b100 P
#213000
b101 +
b101 0
b101 =
b101 P
#214000
b110 +
b110 0
b110 =
b110 P
#215000
b111 +
b111 0
b111 =
b111 P
#216000
b1000 +
b1000 0
b1000 =
b1000 P
#217000
b1001 +
b1001 0
b1001 =
b1001 P
#218000
b1010 +
b1010 0
b1010 =
b1010 P
#219000
b1011 +
b1011 0
b1011 =
b1011 P
#220000
b1100 +
b1100 0
b1100 =
b1100 P
#221000
b1101 +
b1101 0
b1101 =
b1101 P
#222000
b1110 +
b1110 0
b1110 =
b1110 P
#223000
b1111 +
b1111 0
b1111 =
b1111 P
#224000
b1110 $
b1110 5
b1110 9
0Z
b1110 3
b1110 ;
b1110 W
1]
0Y
1\
0k
1o
b1110 6
b1110 E
b1110 G
b1110 S
b1110 e
b1110 B
b1110 H
b1110 Q
b1110 *
b1110 /
b1110 <
b1110 M
b1110 O
b0 +
b0 0
b0 =
b0 P
#224001
b1110 y
#225000
b1 +
b1 0
b1 =
b1 P
#226000
b10 +
b10 0
b10 =
b10 P
#227000
b11 +
b11 0
b11 =
b11 P
#228000
b100 +
b100 0
b100 =
b100 P
#229000
b101 +
b101 0
b101 =
b101 P
#230000
b110 +
b110 0
b110 =
b110 P
#231000
b111 +
b111 0
b111 =
b111 P
#232000
b1000 +
b1000 0
b1000 =
b1000 P
#233000
b1001 +
b1001 0
b1001 =
b1001 P
#234000
b1010 +
b1010 0
b1010 =
b1010 P
#235000
b1011 +
b1011 0
b1011 =
b1011 P
#236000
b1100 +
b1100 0
b1100 =
b1100 P
#237000
b1101 +
b1101 0
b1101 =
b1101 P
#238000
b1110 +
b1110 0
b1110 =
b1110 P
#239000
b1111 +
b1111 0
b1111 =
b1111 P
#240000
b1111 $
b1111 5
b1111 9
b1111 3
b1111 ;
b1111 W
1Z
1Y
1k
b1111 6
b1111 E
b1111 G
b1111 S
b1111 e
b1111 B
b1111 H
b1111 Q
b1111 *
b1111 /
b1111 <
b1111 M
b1111 O
b0 +
b0 0
b0 =
b0 P
#240001
b1111 y
#241000
b1 +
b1 0
b1 =
b1 P
#242000
b10 +
b10 0
b10 =
b10 P
#243000
b11 +
b11 0
b11 =
b11 P
#244000
b100 +
b100 0
b100 =
b100 P
#245000
b101 +
b101 0
b101 =
b101 P
#246000
b110 +
b110 0
b110 =
b110 P
#247000
b111 +
b111 0
b111 =
b111 P
#248000
b1000 +
b1000 0
b1000 =
b1000 P
#249000
b1001 +
b1001 0
b1001 =
b1001 P
#250000
b1010 +
b1010 0
b1010 =
b1010 P
#251000
b1011 +
b1011 0
b1011 =
b1011 P
#252000
b1100 +
b1100 0
b1100 =
b1100 P
#253000
b1101 +
b1101 0
b1101 =
b1101 P
#254000
b1110 +
b1110 0
b1110 =
b1110 P
#255000
b1111 +
b1111 0
b1111 =
b1111 P
#256000
0`
0"
0c
0U
0]
0Y
0\
0_
0b
0k
0o
0s
0w
b1 $
b1 5
b1 9
0V
b0 6
b0 E
b0 G
b0 S
b0 e
b1 3
b1 ;
b1 W
1Z
b0 B
b0 H
b0 Q
1-
b0 *
b0 /
b0 <
b0 M
b0 O
b0 +
b0 0
b0 =
b0 P
#256001
0{
b1 y
#257000
b1 +
b1 0
b1 =
b1 P
#258000
b10 +
b10 0
b10 =
b10 P
#259000
b11 +
b11 0
b11 =
b11 P
#260000
b100 +
b100 0
b100 =
b100 P
#261000
b101 +
b101 0
b101 =
b101 P
#262000
b110 +
b110 0
b110 =
b110 P
#263000
b111 +
b111 0
b111 =
b111 P
#264000
b1000 +
b1000 0
b1000 =
b1000 P
#265000
b1001 +
b1001 0
b1001 =
b1001 P
#266000
b1010 +
b1010 0
b1010 =
b1010 P
#267000
b1011 +
b1011 0
b1011 =
b1011 P
#268000
b1100 +
b1100 0
b1100 =
b1100 P
#269000
b1101 +
b1101 0
b1101 =
b1101 P
#270000
b1110 +
b1110 0
b1110 =
b1110 P
#271000
b1111 +
b1111 0
b1111 =
b1111 P
#272000
0!
1]
b10 $
b10 5
b10 9
1V
b10 3
b10 ;
b10 W
0Z
1Y
1k
b1 6
b1 E
b1 G
b1 S
b1 e
b1 B
b1 H
b1 Q
b1 *
b1 /
b1 <
b1 M
b1 O
b0 +
b0 0
b0 =
b0 P
#272001
b10 y
#273000
b1 +
b1 0
b1 =
b1 P
#274000
b10 +
b10 0
b10 =
b10 P
#275000
b11 +
b11 0
b11 =
b11 P
#276000
b100 +
b100 0
b100 =
b100 P
#277000
b101 +
b101 0
b101 =
b101 P
#278000
b110 +
b110 0
b110 =
b110 P
#279000
b111 +
b111 0
b111 =
b111 P
#280000
b1000 +
b1000 0
b1000 =
b1000 P
#281000
b1001 +
b1001 0
b1001 =
b1001 P
#282000
b1010 +
b1010 0
b1010 =
b1010 P
#283000
b1011 +
b1011 0
b1011 =
b1011 P
#284000
b1100 +
b1100 0
b1100 =
b1100 P
#285000
b1101 +
b1101 0
b1101 =
b1101 P
#286000
b1110 +
b1110 0
b1110 =
b1110 P
#287000
b1111 +
b1111 0
b1111 =
b1111 P
#288000
0`
0V
b11 $
b11 5
b11 9
0U
1Z
b11 3
b11 ;
b11 W
1]
0Y
1\
0k
1o
b10 6
b10 E
b10 G
b10 S
b10 e
b10 B
b10 H
b10 Q
b10 *
b10 /
b10 <
b10 M
b10 O
b0 +
b0 0
b0 =
b0 P
#288001
b11 y
#289000
b1 +
b1 0
b1 =
b1 P
#290000
b10 +
b10 0
b10 =
b10 P
#291000
b11 +
b11 0
b11 =
b11 P
#292000
b100 +
b100 0
b100 =
b100 P
#293000
b101 +
b101 0
b101 =
b101 P
#294000
b110 +
b110 0
b110 =
b110 P
#295000
b111 +
b111 0
b111 =
b111 P
#296000
b1000 +
b1000 0
b1000 =
b1000 P
#297000
b1001 +
b1001 0
b1001 =
b1001 P
#298000
b1010 +
b1010 0
b1010 =
b1010 P
#299000
b1011 +
b1011 0
b1011 =
b1011 P
#300000
b1100 +
b1100 0
b1100 =
b1100 P
#301000
b1101 +
b1101 0
b1101 =
b1101 P
#302000
b1110 +
b1110 0
b1110 =
b1110 P
#303000
b1111 +
b1111 0
b1111 =
b1111 P
#304000
0!
1`
1U
0]
b100 $
b100 5
b100 9
1V
b100 3
b100 ;
b100 W
0Z
1Y
1k
b11 6
b11 E
b11 G
b11 S
b11 e
b11 B
b11 H
b11 Q
b11 *
b11 /
b11 <
b11 M
b11 O
b0 +
b0 0
b0 =
b0 P
#304001
b100 y
#305000
b1 +
b1 0
b1 =
b1 P
#306000
b10 +
b10 0
b10 =
b10 P
#307000
b11 +
b11 0
b11 =
b11 P
#308000
b100 +
b100 0
b100 =
b100 P
#309000
b101 +
b101 0
b101 =
b101 P
#310000
b110 +
b110 0
b110 =
b110 P
#311000
b111 +
b111 0
b111 =
b111 P
#312000
b1000 +
b1000 0
b1000 =
b1000 P
#313000
b1001 +
b1001 0
b1001 =
b1001 P
#314000
b1010 +
b1010 0
b1010 =
b1010 P
#315000
b1011 +
b1011 0
b1011 =
b1011 P
#316000
b1100 +
b1100 0
b1100 =
b1100 P
#317000
b1101 +
b1101 0
b1101 =
b1101 P
#318000
b1110 +
b1110 0
b1110 =
b1110 P
#319000
b1111 +
b1111 0
b1111 =
b1111 P
#320000
0"
0c
0V
0U
b101 $
b101 5
b101 9
0T
1Z
0]
b101 3
b101 ;
b101 W
1`
0Y
0\
1_
0k
0o
1s
b100 6
b100 E
b100 G
b100 S
b100 e
b100 B
b100 H
b100 Q
b100 *
b100 /
b100 <
b100 M
b100 O
b0 +
b0 0
b0 =
b0 P
#320001
b101 y
#321000
b1 +
b1 0
b1 =
b1 P
#322000
b10 +
b10 0
b10 =
b10 P
#323000
b11 +
b11 0
b11 =
b11 P
#324000
b100 +
b100 0
b100 =
b100 P
#325000
b101 +
b101 0
b101 =
b101 P
#326000
b110 +
b110 0
b110 =
b110 P
#327000
b111 +
b111 0
b111 =
b111 P
#328000
b1000 +
b1000 0
b1000 =
b1000 P
#329000
b1001 +
b1001 0
b1001 =
b1001 P
#330000
b1010 +
b1010 0
b1010 =
b1010 P
#331000
b1011 +
b1011 0
b1011 =
b1011 P
#332000
b1100 +
b1100 0
b1100 =
b1100 P
#333000
b1101 +
b1101 0
b1101 =
b1101 P
#334000
b1110 +
b1110 0
b1110 =
b1110 P
#335000
b1111 +
b1111 0
b1111 =
b1111 P
#336000
1]
b110 $
b110 5
b110 9
1V
b110 3
b110 ;
b110 W
0Z
1Y
1k
b101 6
b101 E
b101 G
b101 S
b101 e
b101 B
b101 H
b101 Q
b101 *
b101 /
b101 <
b101 M
b101 O
b0 +
b0 0
b0 =
b0 P
#336001
b110 y
#337000
b1 +
b1 0
b1 =
b1 P
#338000
b10 +
b10 0
b10 =
b10 P
#339000
b11 +
b11 0
b11 =
b11 P
#340000
b100 +
b100 0
b100 =
b100 P
#341000
b101 +
b101 0
b101 =
b101 P
#342000
b110 +
b110 0
b110 =
b110 P
#343000
b111 +
b111 0
b111 =
b111 P
#344000
b1000 +
b1000 0
b1000 =
b1000 P
#345000
b1001 +
b1001 0
b1001 =
b1001 P
#346000
b1010 +
b1010 0
b1010 =
b1010 P
#347000
b1011 +
b1011 0
b1011 =
b1011 P
#348000
b1100 +
b1100 0
b1100 =
b1100 P
#349000
b1101 +
b1101 0
b1101 =
b1101 P
#350000
b1110 +
b1110 0
b1110 =
b1110 P
#351000
b1111 +
b1111 0
b1111 =
b1111 P
#352000
0"
0c
0T
1`
0V
b111 $
b111 5
b111 9
0U
1Z
b111 3
b111 ;
b111 W
1]
0Y
1\
0k
1o
b110 6
b110 E
b110 G
b110 S
b110 e
b110 B
b110 H
b110 Q
b110 *
b110 /
b110 <
b110 M
b110 O
b0 +
b0 0
b0 =
b0 P
#352001
b111 y
#353000
b1 +
b1 0
b1 =
b1 P
#354000
b10 +
b10 0
b10 =
b10 P
#355000
b11 +
b11 0
b11 =
b11 P
#356000
b100 +
b100 0
b100 =
b100 P
